---
title: "Systematic Review Extraction Script Template"
date: "08 Dec 2020 at 17:39:50"
output:
  html_document:
    self-contained: yes
    toc: false
params:
  rxsVersion = "0.1.0"
---

```{r rxsChunk-setup, include=FALSE, messages=FALSE}
### First load (and perhaps install) ufs
if (!('ufs' %in% row.names(installed.packages()))) {
  install.packages('ufs');
}

### Other packages
ufs::checkPkgs('googlesheets');     ### To import data from google sheets in metabefor
ufs::checkPkgs('jsonlite');         ### To import a list of country codes in metabefor
ufs::checkPkgs('data.tree');        ### To work with data structured in a tree in metabefor
ufs::checkPkgs('pander');           ### To print the dataframe with results in a nice way
ufs::checkPkgs('devtools');         ### To install metabefor from github repo
                                    ### ... Which we then do here:
# #devtools::install_gitlab('r-packages/metabefor',
# #                         quiet=TRUE);

### Settings
knitr::opts_chunk$set(echo = FALSE);             ### Suppress R command printing
knitr::opts_chunk$set(comment=NA);               ### Suppress output prefix
pander::panderOptions('table.split.table', Inf); ### Disable table splitting
```

```{r rxsChunk-fieldnames}
eC <- list(titleCol="title",
           descriptionCol="description",
           identifierCol="identifier",
           valueTemplateCol="valueTemplate",
           validValuesCol="validValues",
           defaultCol="default",
           parentCol="parent",
           entityRefCol="entityRef",
           fieldRefCol="fieldRef",
           ownerCol="owner",
           listCol="list",
           collapsingCol="collapsing",
           repeatingCol="repeating",
           recurringCol="recurring",
           recursingCol="recursing",
           identifyingCol="identifying");

valueTemplateCols <- list(identifierCol="identifier",
                          descriptionCol="description",
                          validValuesCol="validValues",
                          defaultCol="default",
                          examplesCol="examples",
                          validationCol="validation",
                          errorCol="error");
```

```{r rxsChunk, echo=FALSE}
################################################################################
######################################################## START: study (ROOT) ###
################################################################################
study <- data.tree::Node$new('study');
################################################################################

  ##############################################################################
  ########################################################### START: general ###
  ##############################################################################
  study$AddChild('general');
  ##############################################################################
  ### 
  ### GENERAL
  ### 
  ### General information about the study.
  ### 
  ##############################################################################
      
  
    ############################################################################
    ###################################################### START: full_title ###
    ############################################################################
    study$general$AddChild('full_title');
    study$general$full_title[['value']] <-
    ############################################################################
    ### 
    ### TITLE
    ### 
    ### Full title
    ### 
    ############################################################################
        
        "'Trois Empreintes d’un Même Cachet': Toward a Historical Definition of Nutrition"
        
    ############################################################################
    ######################################### VALUE DESCRIPTION AND EXAMPLES ###
    ############################################################################
    ### 
    ### A single character value
    ### 
    ### EXAMPLES:
    ### 
    ### "Example"
    ### "Another example"
    ### 
    ############################################################################
    study$general$full_title[['validation']] <- expression(is.na(VALUE) || (is.character(VALUE) && length(VALUE) == 1));
    ############################################################################
    ######################################################## END: full_title ###
    ############################################################################
  
  
    ############################################################################
    ######################################################### START: authors ###
    ############################################################################
    study$general$AddChild('authors');
    study$general$authors[['value']] <-
    ############################################################################
    ### 
    ### AUTHORS
    ### 
    ### Author names (Last and captial of First), e.g.: Smith S, Caruso
    ### T, and Marsh C.
    ### 
    ############################################################################
        
        "Ruis AR"
        
    ############################################################################
    ######################################### VALUE DESCRIPTION AND EXAMPLES ###
    ############################################################################
    ### 
    ### A single character value
    ### 
    ### EXAMPLES:
    ### 
    ### "Example"
    ### "Another example"
    ### 
    ############################################################################
    study$general$authors[['validation']] <- expression(is.na(VALUE) || (is.character(VALUE) && length(VALUE) == 1));
    ############################################################################
    ########################################################### END: authors ###
    ############################################################################
  
  
    ############################################################################
    ##################################################### START: publication ###
    ############################################################################
    study$general$AddChild('publication');
    study$general$publication[['value']] <-
    ############################################################################
    ### 
    ### PUBLICATION
    ### 
    ### Where the study was published (journal, book, etc.)
    ### 
    ############################################################################
        
        "Viral Networks: Connecting Digital Humanities and Medical History, pp. 179-212"
        
    ############################################################################
    ######################################### VALUE DESCRIPTION AND EXAMPLES ###
    ############################################################################
    ### 
    ### A single character value
    ### 
    ### EXAMPLES:
    ### 
    ### "Example"
    ### "Another example"
    ### 
    ############################################################################
    study$general$publication[['validation']] <- expression(is.na(VALUE) || (is.character(VALUE) && length(VALUE) == 1));
    ############################################################################
    ####################################################### END: publication ###
    ############################################################################
  
  
    ############################################################################
    ######################################################### START: studyID ###
    ############################################################################
    study$general$AddChild('studyID');
    study$general$studyID[['value']] <-
    ############################################################################
    ### 
    ### STUDY IDENTIFIER
    ### 
    ### Unique identifier for this study
    ### 
    ############################################################################
        
        ""
        
    ############################################################################
    ######################################### VALUE DESCRIPTION AND EXAMPLES ###
    ############################################################################
    ### 
    ### For studies with a DOI, "doi:" directly followed by the DOI;
    ### for studies without a DOI, the DOI prefix of the publisher (see
    ### https://gist.github.com/TomDemeranville/8699224), followed by a
    ### slash, followed by the ISSN, followed by a dash, followed by
    ### the year of publication, followed by a dash, followed by the
    ### starting page. If no DOI prefix can be located, instead use
    ### 'NA'.
    ### 
    ### EXAMPLES:
    ### 
    ### "doi:10.18637/jss.v036.i03"
    ### "nodoi:10.1111/0965-2140/2003-951"
    ### "doi:10.1136/bmj.2.2288.1243"
    ### 
    ############################################################################
    study$general$studyID[['validation']] <- expression(nchar(VALUE)>10);
    ############################################################################
    ########################################################### END: studyID ###
    ############################################################################
  
  
    ############################################################################
    ##################################################### START: study_topic ###
    ############################################################################
    study$general$AddChild('study_topic');
    study$general$study_topic[['value']] <-
    ############################################################################
    ### 
    ### STUDY TOPIC
    ### 
    ### Add a short list of topics the publication is about
    ### 
    ############################################################################
        
        "nutrition, conceptual discourse models, historical definitions"
        
    ############################################################################
    ######################################### VALUE DESCRIPTION AND EXAMPLES ###
    ############################################################################
    ### 
    ### A single character value
    ### 
    ### EXAMPLES:
    ### 
    ### "Example"
    ### "Another example"
    ### 
    ############################################################################
    study$general$study_topic[['validation']] <- expression(is.na(VALUE) || (is.character(VALUE) && length(VALUE) == 1));
    ############################################################################
    ####################################################### END: study_topic ###
    ############################################################################
  
  
    ############################################################################
    ######################################################## START: comments ###
    ############################################################################
    study$general$AddChild('comments');
    study$general$comments[['value']] <-
    ############################################################################
    ### 
    ### GENERAL COMMENTS
    ### 
    ### Any general comments the coder wants to add about this study
    ### 
    ############################################################################
        
        ""
        
    ############################################################################
    ######################################### VALUE DESCRIPTION AND EXAMPLES ###
    ############################################################################
    ### 
    ### A single character value
    ### 
    ### EXAMPLES:
    ### 
    ### "Example"
    ### "Another example"
    ### 
    ############################################################################
    study$general$comments[['validation']] <- expression(is.na(VALUE) || (is.character(VALUE) && length(VALUE) == 1));
    ############################################################################
    ########################################################## END: comments ###
    ############################################################################
  
  
    ############################################################################
    ################################################## START: year_published ###
    ############################################################################
    study$general$AddChild('year_published');
    study$general$year_published[['value']] <-
    ############################################################################
    ### 
    ### YEAR OF PUBLICATION
    ### 
    ### Year article was published
    ### 
    ############################################################################
        
        2018
        
    ############################################################################
    ######################################### VALUE DESCRIPTION AND EXAMPLES ###
    ############################################################################
    ### 
    ### A single year
    ### 
    ### EXAMPLES:
    ### 
    ### 2001
    ### 2017
    ### 
    ############################################################################
    study$general$year_published[['validation']] <- expression(is.na(VALUE) || (is.numeric(VALUE) && all(nchar(VALUE)==4) && (length(VALUE) == 1)));
    ############################################################################
    #################################################### END: year_published ###
    ############################################################################
  
  
    ############################################################################
    #################################################### START: country_data ###
    ############################################################################
    study$general$AddChild('country_data');
    study$general$country_data[['value']] <-
    ############################################################################
    ### 
    ### DATA LOCATION
    ### 
    ### Country (or countries) where the data was collected
    ### 
    ############################################################################
        
        NA
        
#all data published in English
    ############################################################################
    ######################################### VALUE DESCRIPTION AND EXAMPLES ###
    ############################################################################
    ### 
    ### A character vector of the ISO 3166-1 alpha-2 country code(s)
    ### 
    ### EXAMPLES:
    ### 
    ### "NL"
    ### c("NL", "BE")
    ### 
    ############################################################################
    study$general$country_data[['validation']] <- expression(is.na(VALUE) || (VALUE %in% metabefor::countryCodeList()));
    ############################################################################
    ###################################################### END: country_data ###
    ############################################################################
  
  
    ############################################################################
    ################################################### START: country_affil ###
    ############################################################################
    study$general$AddChild('country_affil');
    study$general$country_affil[['value']] <-
    ############################################################################
    ### 
    ### AUTHOR AFFILIATION
    ### 
    ### Country (or countries) of authors' affiliation
    ### 
    ############################################################################
        
        "US"
        
    ############################################################################
    ######################################### VALUE DESCRIPTION AND EXAMPLES ###
    ############################################################################
    ### 
    ### A character vector of the ISO 3166-1 alpha-2 country code(s)
    ### 
    ### EXAMPLES:
    ### 
    ### "NL"
    ### c("NL", "BE")
    ### 
    ############################################################################
    study$general$country_affil[['validation']] <- expression(is.na(VALUE) || (VALUE %in% metabefor::countryCodeList()));
    ############################################################################
    ##################################################### END: country_affil ###
    ############################################################################
  
  
    ############################################################################
    ################################################ START: publication_type ###
    ############################################################################
    study$general$AddChild('publication_type');
    study$general$publication_type[['value']] <-
    ############################################################################
    ### 
    ### TYPE OF PUBLICATION
    ### 
    ### Where was the study published
    ### 
    ############################################################################
        
        "book"
        
    ############################################################################
    ######################################### VALUE DESCRIPTION AND EXAMPLES ###
    ############################################################################
    ### 
    ### A string that has to exactly match one of the values specified
    ### in the "values" column of the Coding sheet
    ### 
    ### EXAMPLE:
    ### 
    ### c("journal", "book", "ThesisDissertation", "other")
    ### 
    ############################################################################
    study$general$publication_type[['validation']] <- expression(is.na(VALUE) || (VALUE %in% c("journal", "book", "ThesisDissertation", "other")));
    ############################################################################
    ################################################## END: publication_type ###
    ############################################################################
  
  
    ############################################################################
    ###################################################### START: QE_concept ###
    ############################################################################
    study$general$AddChild('QE_concept');
    study$general$QE_concept[['value']] <-
    ############################################################################
    ### 
    ### QE CONCEPTUALIZATION AND USE
    ### 
    ### How was QE and/or ENA conceptualized, defined? Why was QE/ENA
    ### employed?
    ### 
    ############################################################################
        
        "epistemic network analysis (ENA), a set of techniques for measuring, visualizing, and comparing patterns of association among conceptual elements. In doing so, I argue that conceptual networks can help us understand macrohistorical patterns in discourses—in this case, discourses of nutrition—without sacrificing microhistorical rigor."
    ############################################################################
    ######################################### VALUE DESCRIPTION AND EXAMPLES ###
    ############################################################################
    ### 
    ### A single character value
    ### 
    ### EXAMPLES:
    ### 
    ### "Example"
    ### "Another example"
    ### 
    ############################################################################
    study$general$QE_concept[['validation']] <- expression(is.na(VALUE) || (is.character(VALUE) && length(VALUE) == 1));
    ############################################################################
    ######################################################## END: QE_concept ###
    ############################################################################
  
      
  ##############################################################################
  ############################################################# END: general ###
  ##############################################################################


  ##############################################################################
  ########################################################### START: methods ###
  ##############################################################################
  study$AddChild('methods');
  ##############################################################################
  ### 
  ### METHODS
  ### 
  ### Information about the study's methods (e.g. design, data
  ### collection, analysis procedures, operationalizations, etc).
  ### 
  ##############################################################################
      
  
    ############################################################################
    ########################################################## START: design ###
    ############################################################################
    study$methods$AddChild('design');
    ############################################################################
    ### 
    ### DESIGN
    ### 
    ### Information about the design of the study.
    ### 
    ############################################################################
        
    
      ##########################################################################
      #################################################### START: study_type ###
      ##########################################################################
      study$methods$design$AddChild('study_type');
      study$methods$design$study_type[['value']] <-
      ##########################################################################
      ### 
      ### TYPE OF STUDY
      ### 
      ### General research design
      ### 
      ##########################################################################
          
          "empirical, theoretical"
          
      ##########################################################################
      ####################################### VALUE DESCRIPTION AND EXAMPLES ###
      ##########################################################################
      ### 
      ### A string that has to exactly match one of the values
      ### specified in the "values" column of the Coding sheet
      ### 
      ### EXAMPLE:
      ### 
      ### c("empirical", "theoretical", "review", "other")
      ### 
      ##########################################################################
      study$methods$design$study_type[['validation']] <- expression(is.na(VALUE) || (VALUE %in% c("empirical", "theoretical", "review", "other")));
      ##########################################################################
      ###################################################### END: study_type ###
      ##########################################################################
    
    
      ##########################################################################
      ########################################################### START: ENA ###
      ##########################################################################
      study$methods$design$AddChild('ENA');
      study$methods$design$ENA[['value']] <-
      ##########################################################################
      ### 
      ### ENA
      ### 
      ### Was ENA employed?
      ### 
      ##########################################################################
          
          "yes"
          
      ##########################################################################
      ####################################### VALUE DESCRIPTION AND EXAMPLES ###
      ##########################################################################
      ### 
      ### A string that has to exactly match one of the values
      ### specified in the "values" column of the Coding sheet
      ### 
      ### EXAMPLE:
      ### 
      ### c("yes", "no")
      ### 
      ##########################################################################
      study$methods$design$ENA[['validation']] <- expression(is.na(VALUE) || (VALUE %in% c("yes", "no")));
      ##########################################################################
      ############################################################# END: ENA ###
      ##########################################################################
    
    
      ##########################################################################
      ################################################# START: study_methods ###
      ##########################################################################
      study$methods$design$AddChild('study_methods');
      study$methods$design$study_methods[['value']] <-
      ##########################################################################
      ### 
      ### ANALYTICAL METHODS
      ### 
      ### Methods of analysis (aside from ENA)
      ### 
      ##########################################################################
          
          ""
          
      ##########################################################################
      ####################################### VALUE DESCRIPTION AND EXAMPLES ###
      ##########################################################################
      ### 
      ### A single character value
      ### 
      ### EXAMPLES:
      ### 
      ### "Example"
      ### "Another example"
      ### 
      ##########################################################################
      study$methods$design$study_methods[['validation']] <- expression(is.na(VALUE) || (is.character(VALUE) && length(VALUE) == 1));
      ##########################################################################
      ################################################### END: study_methods ###
      ##########################################################################
    
    
      ##########################################################################
      #################################################### START: objectives ###
      ##########################################################################
      study$methods$design$AddChild('objectives');
      study$methods$design$objectives[['value']] <-
      ##########################################################################
      ### 
      ### RESEARCH QUESTIONS/OBJECTIVES
      ### 
      ### Main research question(s)/objective(s)
      ### 
      ##########################################################################
          
          "In what follows, I attempt to model the concept of “nutrition” in English-language sources from the nineteenth and twentieth centuries."
          
      ##########################################################################
      ####################################### VALUE DESCRIPTION AND EXAMPLES ###
      ##########################################################################
      ### 
      ### A single character value
      ### 
      ### EXAMPLES:
      ### 
      ### "Example"
      ### "Another example"
      ### 
      ##########################################################################
      study$methods$design$objectives[['validation']] <- expression(is.na(VALUE) || (is.character(VALUE) && length(VALUE) == 1));
      ##########################################################################
      ###################################################### END: objectives ###
      ##########################################################################
    
    
      ##########################################################################
      ######################################### START: variables (REPEATING) ###
      ##########################################################################
      study$methods$design$AddChild('variables__1__');
      study$methods$design$variables[['value']] <-
      ##########################################################################
      ### 
      ### VARIABLES
      ### 
      ### The variables as used/observed in the study
      ### 
      ##########################################################################
          
          "definition over time"
          
      ##########################################################################
      ####################################### VALUE DESCRIPTION AND EXAMPLES ###
      ##########################################################################
      ### 
      ### A single character value
      ### 
      ### EXAMPLES:
      ### 
      ### "Example"
      ### "Another example"
      ### 
      ##########################################################################
      study$methods$design$variables[['validation']] <- expression(is.na(VALUE) || (is.character(VALUE) && length(VALUE) == 1));
      ##########################################################################
      ########################################### END: variables (REPEATING) ###
      ##########################################################################
    
    
      ##########################################################################
      ###################################################### START: metadata ###
      ##########################################################################
      study$methods$design$AddChild('metadata');
      study$methods$design$metadata[['value']] <-
      ##########################################################################
      ### 
      ### METADATA
      ### 
      ### What metadata (i.e. attributes) were recorded? (age, sex,
      ### level of education, etc.)
      ### 
      ##########################################################################
          
          "decade, source"
          
      ##########################################################################
      ####################################### VALUE DESCRIPTION AND EXAMPLES ###
      ##########################################################################
      ### 
      ### A single character value
      ### 
      ### EXAMPLES:
      ### 
      ### "Example"
      ### "Another example"
      ### 
      ##########################################################################
      study$methods$design$metadata[['validation']] <- expression(is.na(VALUE) || (is.character(VALUE) && length(VALUE) == 1));
      ##########################################################################
      ######################################################## END: metadata ###
      ##########################################################################
    
        
    ############################################################################
    ############################################################ END: design ###
    ############################################################################
  
  
    ############################################################################
    ############################################################ START: data ###
    ############################################################################
    study$methods$AddChild('data');
    ############################################################################
    ### 
    ### DATA
    ### 
    ############################################################################
        
    
      ##########################################################################
      ##################################################### START: data_type ###
      ##########################################################################
      study$methods$data$AddChild('data_type');
      study$methods$data$data_type[['value']] <-
      ##########################################################################
      ### 
      ### TYPE OF DATA
      ### 
      ### What kind(s) of raw data was collected
      ### 
      ##########################################################################
          
          "text"
          
      ##########################################################################
      ####################################### VALUE DESCRIPTION AND EXAMPLES ###
      ##########################################################################
      ### 
      ### A string that has to exactly match one of the values
      ### specified in the "values" column of the Coding sheet
      ### 
      ### EXAMPLE:
      ### 
      ### c("audio", "video", "audio-video", "text", "numerical", "other", "not reported", "not applicable")
      ### 
      ##########################################################################
      study$methods$data$data_type[['validation']] <- expression(is.na(VALUE) || (VALUE %in% c("audio", "video", "audio-video", "text", "numerical", "other", "not reported", "not applicable")));
      ##########################################################################
      ####################################################### END: data_type ###
      ##########################################################################
    
    
      ##########################################################################
      ############################################### START: data_collection ###
      ##########################################################################
      study$methods$data$AddChild('data_collection');
      study$methods$data$data_collection[['value']] <-
      ##########################################################################
      ### 
      ### METHOD OF DATA COLLECTION
      ### 
      ### How was the data collected
      ### 
      ##########################################################################
          
          "archive"
          
      ##########################################################################
      ####################################### VALUE DESCRIPTION AND EXAMPLES ###
      ##########################################################################
      ### 
      ### A string that has to exactly match one of the values
      ### specified in the "values" column of the Coding sheet
      ### 
      ### EXAMPLE:
      ### 
      ### c("semi-structured interview", "structured interview", "observation", "chatroom", "focus group", "survey", "archive", "other", "not reported", "not applicable")
      ### 
      ##########################################################################
      study$methods$data$data_collection[['validation']] <- expression(is.na(VALUE) || (VALUE %in% c("semi-structured interview", "structured interview", "observation", "chatroom", "focus group", "survey", "archive", "other", "not reported", "not applicable")));
      ##########################################################################
      ################################################# END: data_collection ###
      ##########################################################################
    
    
      ##########################################################################
      ################################################### START: data_source ###
      ##########################################################################
      study$methods$data$AddChild('data_source');
      study$methods$data$data_source[['value']] <-
      ##########################################################################
      ### 
      ### SOURCE OF DATA
      ### 
      ### Who are the sources of the data? How is the data handled?
      ### (e.g.: narratives from individuals but data handled as a
      ### group, i.e. not parsed according to individual speakers)
      ### 
      ##########################################################################
          
          "other"
          
      ##########################################################################
      ####################################### VALUE DESCRIPTION AND EXAMPLES ###
      ##########################################################################
      ### 
      ### A string that has to exactly match one of the values
      ### specified in the "values" column of the Coding sheet
      ### 
      ### EXAMPLE:
      ### 
      ### c("individual", "dyad", "group", "individual and group", "other", "not reported", "not applicable")
      ### 
      ##########################################################################
      study$methods$data$data_source[['validation']] <- expression(is.na(VALUE) || (VALUE %in% c("individual", "dyad", "group", "individual and group", "other", "not reported", "not applicable")));
      ##########################################################################
      ##################################################### END: data_source ###
      ##########################################################################
    
        
    ############################################################################
    ############################################################## END: data ###
    ############################################################################
  
  
    ############################################################################
    ########################################################## START: coding ###
    ############################################################################
    study$methods$AddChild('coding');
    ############################################################################
    ### 
    ### CODING
    ### 
    ############################################################################
        
    
      ##########################################################################
      ##################################################### START: code_type ###
      ##########################################################################
      study$methods$coding$AddChild('code_type');
      study$methods$coding$code_type[['value']] <-
      ##########################################################################
      ### 
      ### TYPE OF CODING
      ### 
      ### What type of coding was used?
      ### 
      ##########################################################################
          
          "deductive"
          
      ##########################################################################
      ####################################### VALUE DESCRIPTION AND EXAMPLES ###
      ##########################################################################
      ### 
      ### A string that has to exactly match one of the values
      ### specified in the "values" column of the Coding sheet
      ### 
      ### EXAMPLE:
      ### 
      ### c("inductive", "deductive", "inductive and deductive", "not reported", "not applicable")
      ### 
      ##########################################################################
      study$methods$coding$code_type[['validation']] <- expression(is.na(VALUE) || (VALUE %in% c("inductive", "deductive", "inductive and deductive", "not reported", "not applicable")));
      ##########################################################################
      ####################################################### END: code_type ###
      ##########################################################################
    
    
      ##########################################################################
      ############################################## START: code_development ###
      ##########################################################################
      study$methods$coding$AddChild('code_development');
      study$methods$coding$code_development[['value']] <-
      ##########################################################################
      ### 
      ### DEVELOPMENT OF CODES
      ### 
      ### How was the coding structure created? (Any details on the
      ### creation or utilization of the code tree)
      ### 
      ##########################################################################
          
          "To construct network models using this approach, each definition in the dataset was coded for 14 elements commonly related to concepts of nutrition. The codes, which are summarized in table 8.1, fall into three main categories: (1) physiological elements are the internal mechanisms by which foods are processed and used in the body; (2) adaptive elements are individual actions or conditions that are related to nutritional processes or outcomes; and (3) ecological elements are systemic or structural elements that are related to nutritional processes or outcomes."
          
      ##########################################################################
      ####################################### VALUE DESCRIPTION AND EXAMPLES ###
      ##########################################################################
      ### 
      ### A single character value
      ### 
      ### EXAMPLES:
      ### 
      ### "Example"
      ### "Another example"
      ### 
      ##########################################################################
      study$methods$coding$code_development[['validation']] <- expression(is.na(VALUE) || (is.character(VALUE) && length(VALUE) == 1));
      ##########################################################################
      ################################################ END: code_development ###
      ##########################################################################
    
    
      ##########################################################################
      ################################################### START: code_number ###
      ##########################################################################
      study$methods$coding$AddChild('code_number');
      study$methods$coding$code_number[['value']] <-
      ##########################################################################
      ### 
      ### NUMBER OF CODES
      ### 
      ### How many codes were employed (lowest level of abstraction)?
      ### 
      ##########################################################################
          
          14
          
      ##########################################################################
      ####################################### VALUE DESCRIPTION AND EXAMPLES ###
      ##########################################################################
      ### 
      ### Any valid whole number
      ### 
      ### EXAMPLES:
      ### 
      ### 30
      ### 8762
      ### 
      ##########################################################################
      study$methods$coding$code_number[['validation']] <- expression(is.na(VALUE) || (is.numeric(VALUE) && (VALUE%%1==0) && (length(VALUE) == 1)));
      ##########################################################################
      ##################################################### END: code_number ###
      ##########################################################################
    
    
      ##########################################################################
      ################################################ START: coding_process ###
      ##########################################################################
      study$methods$coding$AddChild('coding_process');
      study$methods$coding$coding_process[['value']] <-
      ##########################################################################
      ### 
      ### PROCESS OF CODING
      ### 
      ### How was the data coded?
      ### 
      ##########################################################################
          
          "not reported"
          
      ##########################################################################
      ####################################### VALUE DESCRIPTION AND EXAMPLES ###
      ##########################################################################
      ### 
      ### A string that has to exactly match one of the values
      ### specified in the "values" column of the Coding sheet
      ### 
      ### EXAMPLE:
      ### 
      ### c("automated", "manual", "automated and manual", "other", "not reported", "not applicable")
      ### 
      ##########################################################################
      study$methods$coding$coding_process[['validation']] <- expression(is.na(VALUE) || (VALUE %in% c("automated", "manual", "automated and manual", "other", "not reported", "not applicable")));
      ##########################################################################
      ################################################## END: coding_process ###
      ##########################################################################
    
    
      ##########################################################################
      ################################################## START: rater_number ###
      ##########################################################################
      study$methods$coding$AddChild('rater_number');
      study$methods$coding$rater_number[['value']] <-
      ##########################################################################
      ### 
      ### NUMBER OF RATERS
      ### 
      ### How many raters coded the data? (include computer as rater,
      ### e.g.: two humans + machine = 3 raters)
      ### 
      ##########################################################################
          
          NA
          
      ##########################################################################
      ####################################### VALUE DESCRIPTION AND EXAMPLES ###
      ##########################################################################
      ### 
      ### Any valid whole number
      ### 
      ### EXAMPLES:
      ### 
      ### 30
      ### 8762
      ### 
      ##########################################################################
      study$methods$coding$rater_number[['validation']] <- expression(is.na(VALUE) || (is.numeric(VALUE) && (VALUE%%1==0) && (length(VALUE) == 1)));
      ##########################################################################
      #################################################### END: rater_number ###
      ##########################################################################
    
    
      ##########################################################################
      #################################################### START: rater_type ###
      ##########################################################################
      study$methods$coding$AddChild('rater_type');
      study$methods$coding$rater_type[['value']] <-
      ##########################################################################
      ### 
      ### TYPES OF RATERS
      ### 
      ### Were there only human raters or were machines employed as
      ### well?
      ### 
      ##########################################################################
          
          "not reported"
          
      ##########################################################################
      ####################################### VALUE DESCRIPTION AND EXAMPLES ###
      ##########################################################################
      ### 
      ### A string that has to exactly match one of the values
      ### specified in the "values" column of the Coding sheet
      ### 
      ### EXAMPLE:
      ### 
      ### c("human only", "computer only", "human and computer", "not reported", "not applicable")
      ### 
      ##########################################################################
      study$methods$coding$rater_type[['validation']] <- expression(is.na(VALUE) || (VALUE %in% c("human only", "computer only", "human and computer", "not reported", "not applicable")));
      ##########################################################################
      ###################################################### END: rater_type ###
      ##########################################################################
    
    
      ##########################################################################
      ########################################################### START: IRR ###
      ##########################################################################
      study$methods$coding$AddChild('IRR');
      study$methods$coding$IRR[['value']] <-
      ##########################################################################
      ### 
      ### INTER-RATER RELIABILITY
      ### 
      ### Was inter-rater reliability calculated?
      ### 
      ##########################################################################
          
          "not reported"
          
      ##########################################################################
      ####################################### VALUE DESCRIPTION AND EXAMPLES ###
      ##########################################################################
      ### 
      ### A string that has to exactly match one of the values
      ### specified in the "values" column of the Coding sheet
      ### 
      ### EXAMPLE:
      ### 
      ### c("yes", "no", "not reported", "not applicable")
      ### 
      ##########################################################################
      study$methods$coding$IRR[['validation']] <- expression(is.na(VALUE) || (VALUE %in% c("yes", "no", "not reported", "not applicable")));
      ##########################################################################
      ############################################################# END: IRR ###
      ##########################################################################
    
        
    ############################################################################
    ############################################################ END: coding ###
    ############################################################################
  
  
    ############################################################################
    ########################################################## START: sample ###
    ############################################################################
    study$methods$AddChild('sample');
    ############################################################################
    ### 
    ### SAMPLE
    ### 
    ############################################################################
        
    
      ##########################################################################
      ###################################################### START: sampling ###
      ##########################################################################
      study$methods$sample$AddChild('sampling');
      study$methods$sample$sampling[['value']] <-
      ##########################################################################
      ### 
      ### SAMPLING
      ### 
      ### What were the sampling strategies used
      ### 
      ##########################################################################
          
          "between 1800 and 2000, I searched (a) full-text databases for journal articles, books, reports, and reference materials written on the topic of nutrition by scientists, physicians, and other health professionals, as well as (b) physical copies of books, reports, and reference materials on food and nutrition or on topics likely to contain discussions of nutrition, including physiology, dietetics, medicine, and public health."
          
      ##########################################################################
      ####################################### VALUE DESCRIPTION AND EXAMPLES ###
      ##########################################################################
      ### 
      ### A single character value
      ### 
      ### EXAMPLES:
      ### 
      ### "Example"
      ### "Another example"
      ### 
      ##########################################################################
      study$methods$sample$sampling[['validation']] <- expression(is.na(VALUE) || (is.character(VALUE) && length(VALUE) == 1));
      ##########################################################################
      ######################################################## END: sampling ###
      ##########################################################################
    
    
      ##########################################################################
      ############################################################# START: N ###
      ##########################################################################
      study$methods$sample$AddChild('N');
      study$methods$sample$N[['value']] <-
      ##########################################################################
      ### 
      ### SAMPLE SIZE
      ### 
      ### Total number of human participants in the study (note: the
      ### actual sample size may be larger if multiple observations
      ### are collected per participant and sources of data may not
      ### be human)
      ### 
      ##########################################################################
          
          226
      #participants were not human?
      ##########################################################################
      ####################################### VALUE DESCRIPTION AND EXAMPLES ###
      ##########################################################################
      ### 
      ### Any valid whole number
      ### 
      ### EXAMPLES:
      ### 
      ### 30
      ### 8762
      ### 
      ##########################################################################
      study$methods$sample$N[['validation']] <- expression(is.na(VALUE) || (is.numeric(VALUE) && (VALUE%%1==0) && (length(VALUE) == 1)));
      ##########################################################################
      ############################################################### END: N ###
      ##########################################################################
    
    
      ##########################################################################
      #################################################### START: case_study ###
      ##########################################################################
      study$methods$sample$AddChild('case_study');
      study$methods$sample$case_study[['value']] <-
      ##########################################################################
      ### 
      ### CASE STUDY
      ### 
      ### Was this a case study?
      ### 
      ##########################################################################
          
          "no"
          
      ##########################################################################
      ####################################### VALUE DESCRIPTION AND EXAMPLES ###
      ##########################################################################
      ### 
      ### A string that has to exactly match one of the values
      ### specified in the "values" column of the Coding sheet
      ### 
      ### EXAMPLE:
      ### 
      ### c("yes", "no")
      ### 
      ##########################################################################
      study$methods$sample$case_study[['validation']] <- expression(is.na(VALUE) || (VALUE %in% c("yes", "no")));
      ##########################################################################
      ###################################################### END: case_study ###
      ##########################################################################
    
        
    ############################################################################
    ############################################################ END: sample ###
    ############################################################################
  
  
    ############################################################################
    #################################################### START: segmentation ###
    ############################################################################
    study$methods$AddChild('segmentation');
    ############################################################################
    ### 
    ### SEGMENTATION
    ### 
    ############################################################################
        
    
      ##########################################################################
      ################################################## START: segment_type ###
      ##########################################################################
      study$methods$segmentation$AddChild('segment_type');
      study$methods$segmentation$segment_type[['value']] <-
      ##########################################################################
      ### 
      ### TYPE OF SEGMENTATION
      ### 
      ### How was segmentation achieved?
      ### 
      ##########################################################################
          
          "manual"
          
      ##########################################################################
      ####################################### VALUE DESCRIPTION AND EXAMPLES ###
      ##########################################################################
      ### 
      ### A string that has to exactly match one of the values
      ### specified in the "values" column of the Coding sheet
      ### 
      ### EXAMPLE:
      ### 
      ### c("automated", "manual", "automated and manual", "not reported", "not applicable")
      ### 
      ##########################################################################
      study$methods$segmentation$segment_type[['validation']] <- expression(is.na(VALUE) || (VALUE %in% c("automated", "manual", "automated and manual", "not reported", "not applicable")));
      ##########################################################################
      #################################################### END: segment_type ###
      ##########################################################################
    
    
      ##########################################################################
      #################################################### START: stanza_def ###
      ##########################################################################
      study$methods$segmentation$AddChild('stanza_def');
      study$methods$segmentation$stanza_def[['value']] <-
      ##########################################################################
      ### 
      ### DEFINITION OF STANZA
      ### 
      ### How was a stanza defined?
      ### 
      ##########################################################################
          
          "though most sources contain only one definition of nutrition, some contain multiple definitions, and each unique definition was entered on its own line in the dataset. In cases where definitions extend to multiple paragraphs, each paragraph is entered on its own line."
      ##########################################################################
      ####################################### VALUE DESCRIPTION AND EXAMPLES ###
      ##########################################################################
      ### 
      ### A single character value
      ### 
      ### EXAMPLES:
      ### 
      ### "Example"
      ### "Another example"
      ### 
      ##########################################################################
      study$methods$segmentation$stanza_def[['validation']] <- expression(is.na(VALUE) || (is.character(VALUE) && length(VALUE) == 1));
      ##########################################################################
      ###################################################### END: stanza_def ###
      ##########################################################################
    
    
      ##########################################################################
      ################################################# START: utterance_def ###
      ##########################################################################
      study$methods$segmentation$AddChild('utterance_def');
      study$methods$segmentation$utterance_def[['value']] <-
      ##########################################################################
      ### 
      ### DEFINITION OF UTTERANCE
      ### 
      ### How was an utterance defined?
      ### 
      ##########################################################################
          
          "one definition of nutrition"
          
      ##########################################################################
      ####################################### VALUE DESCRIPTION AND EXAMPLES ###
      ##########################################################################
      ### 
      ### A single character value
      ### 
      ### EXAMPLES:
      ### 
      ### "Example"
      ### "Another example"
      ### 
      ##########################################################################
      study$methods$segmentation$utterance_def[['validation']] <- expression(is.na(VALUE) || (is.character(VALUE) && length(VALUE) == 1));
      ##########################################################################
      ################################################### END: utterance_def ###
      ##########################################################################
    
    
      ##########################################################################
      ################################################## START: network_unit ###
      ##########################################################################
      study$methods$segmentation$AddChild('network_unit');
      study$methods$segmentation$network_unit[['value']] <-
      ##########################################################################
      ### 
      ### UNIT IN NETWORKS
      ### 
      ### How was a unit defined in the generated network(s)?
      ### 
      ##########################################################################
          
          "one 50 year time period, source"
          
      ##########################################################################
      ####################################### VALUE DESCRIPTION AND EXAMPLES ###
      ##########################################################################
      ### 
      ### A single character value
      ### 
      ### EXAMPLES:
      ### 
      ### "Example"
      ### "Another example"
      ### 
      ##########################################################################
      study$methods$segmentation$network_unit[['validation']] <- expression(is.na(VALUE) || (is.character(VALUE) && length(VALUE) == 1));
      ##########################################################################
      #################################################### END: network_unit ###
      ##########################################################################
    
    
      ##########################################################################
      ################################################# START: stanza_window ###
      ##########################################################################
      study$methods$segmentation$AddChild('stanza_window');
      study$methods$segmentation$stanza_window[['value']] <-
      ##########################################################################
      ### 
      ### STANZA WINDOW
      ### 
      ### How was the stanza window length defined?
      ### 
      ##########################################################################
          
          "not reported"
          
      ##########################################################################
      ####################################### VALUE DESCRIPTION AND EXAMPLES ###
      ##########################################################################
      ### 
      ### A string that has to exactly match one of the values
      ### specified in the "values" column of the Coding sheet
      ### 
      ### EXAMPLE:
      ### 
      ### c("moving window", "whole conversation", "infinite stanza", "not reported", "not applicable")
      ### 
      ##########################################################################
      study$methods$segmentation$stanza_window[['validation']] <- expression(is.na(VALUE) || (VALUE %in% c("moving window", "whole conversation", "infinite stanza", "not reported", "not applicable")));
      ##########################################################################
      ################################################### END: stanza_window ###
      ##########################################################################
    
        
    ############################################################################
    ###################################################### END: segmentation ###
    ############################################################################
  
      
  ##############################################################################
  ############################################################# END: methods ###
  ##############################################################################


  ##############################################################################
  ####################################################### START: openscience ###
  ##############################################################################
  study$AddChild('openscience');
  ##############################################################################
  ### 
  ### OPEN SCIENCE
  ### 
  ### Degree of adherence to open science principles
  ### 
  ##############################################################################
      
  
    ############################################################################
    ########################################################### START: OS_OA ###
    ############################################################################
    study$openscience$AddChild('OS_OA');
    study$openscience$OS_OA[['value']] <-
    ############################################################################
    ### 
    ### OPEN ACCESS
    ### 
    ### Link to preprint or open access publication
    ### 
    ############################################################################
        
        "yes"
        
    ############################################################################
    ######################################### VALUE DESCRIPTION AND EXAMPLES ###
    ############################################################################
    ### 
    ### A string that has to exactly match one of the values specified
    ### in the "values" column of the Coding sheet
    ### 
    ### EXAMPLE:
    ### 
    ### c("yes", "no", "not applicable")
    ### 
    ############################################################################
    study$openscience$OS_OA[['validation']] <- expression(is.na(VALUE) || (VALUE %in% c("yes", "no", "not applicable")));
    ############################################################################
    ############################################################# END: OS_OA ###
    ############################################################################
  
  
    ############################################################################
    ####################################################### START: OS_PreReg ###
    ############################################################################
    study$openscience$AddChild('OS_PreReg');
    study$openscience$OS_PreReg[['value']] <-
    ############################################################################
    ### 
    ### PREREGISTRATION
    ### 
    ### Link to repository with publicly accessible preregistration
    ### provided
    ### 
    ############################################################################
        
        "no"
        
    ############################################################################
    ######################################### VALUE DESCRIPTION AND EXAMPLES ###
    ############################################################################
    ### 
    ### A string that has to exactly match one of the values specified
    ### in the "values" column of the Coding sheet
    ### 
    ### EXAMPLE:
    ### 
    ### c("yes", "no", "not applicable")
    ### 
    ############################################################################
    study$openscience$OS_PreReg[['validation']] <- expression(is.na(VALUE) || (VALUE %in% c("yes", "no", "not applicable")));
    ############################################################################
    ######################################################### END: OS_PreReg ###
    ############################################################################
  
  
    ############################################################################
    ######################################################### START: OS_Data ###
    ############################################################################
    study$openscience$AddChild('OS_Data');
    study$openscience$OS_Data[['value']] <-
    ############################################################################
    ### 
    ### OPEN DATA
    ### 
    ### Link to repository with publicly accessible data provided
    ### 
    ############################################################################
        
        "no"
        
    ############################################################################
    ######################################### VALUE DESCRIPTION AND EXAMPLES ###
    ############################################################################
    ### 
    ### A string that has to exactly match one of the values specified
    ### in the "values" column of the Coding sheet
    ### 
    ### EXAMPLE:
    ### 
    ### c("yes", "no", "not applicable")
    ### 
    ############################################################################
    study$openscience$OS_Data[['validation']] <- expression(is.na(VALUE) || (VALUE %in% c("yes", "no", "not applicable")));
    ############################################################################
    ########################################################### END: OS_Data ###
    ############################################################################
  
  
    ############################################################################
    ###################################################### START: OS_Process ###
    ############################################################################
    study$openscience$AddChild('OS_Process');
    study$openscience$OS_Process[['value']] <-
    ############################################################################
    ### 
    ### OPEN PROCESS
    ### 
    ### Link to repository with publicly accessible analysis scripts or
    ### other documentation provided
    ### 
    ############################################################################
        
        "no"
        
    ############################################################################
    ######################################### VALUE DESCRIPTION AND EXAMPLES ###
    ############################################################################
    ### 
    ### A string that has to exactly match one of the values specified
    ### in the "values" column of the Coding sheet
    ### 
    ### EXAMPLE:
    ### 
    ### c("yes", "no", "not applicable")
    ### 
    ############################################################################
    study$openscience$OS_Process[['validation']] <- expression(is.na(VALUE) || (VALUE %in% c("yes", "no", "not applicable")));
    ############################################################################
    ######################################################## END: OS_Process ###
    ############################################################################
  
      
  ##############################################################################
  ######################################################### END: openscience ###
  ##############################################################################

    
################################################################################
########################################################## END: study (ROOT) ###
################################################################################
class(study) <- c('rxs', class(study));
```


```{r rxsChunk-show-extracted-data}
print(study);
```

```{r rxsChunk-validation, results='asis'}
# metabefor::rxs_validation(study);
pander::pandoc.header('Validation results', level=1)
#rxs_validation(study,
#               rxsStructure = fullResults$rxsStructure);
if (length(study$validationResults) > 2) {
  cat(paste0('- ', study$validationResults), sep='
');
} else {
  cat('Validation successful!');
}
```

